<?xml version="1.0" encoding="utf-8"?>
<!-- Generator: Adobe Illustrator 22.1.0, SVG Export Plug-In . SVG Version: 6.00 Build 0)  -->
<svg version="1.1" id="Layer_1" xmlns="http://www.w3.org/2000/svg" xmlns:xlink="http://www.w3.org/1999/xlink" x="0px" y="0px"
	 viewBox="0 0 310 360" style="enable-background:new 0 0 310 360;" xml:space="preserve">
<style type="text/css">
	.st0{fill:#74D2E7;}
</style>
<path class="st0" d="M155.4,0C79.7-0.3,14.8,54.3,2.2,129c-12.6,74.7,30.7,147.6,102.3,172.2l49.4,58l49.9-57.6
	c71.8-24,115.8-96.5,103.8-171.3C295.5,55.5,231.2,0.3,155.4,0z"/>
</svg>
