<?xml version="1.0" encoding="utf-8"?>
<!-- Generator: Adobe Illustrator 16.0.0, SVG Export Plug-In . SVG Version: 6.00 Build 0)  -->
<!DOCTYPE svg PUBLIC "-//W3C//DTD SVG 1.1//EN" "http://www.w3.org/Graphics/SVG/1.1/DTD/svg11.dtd">
<svg version="1.1" id="Layer_1" xmlns="http://www.w3.org/2000/svg" xmlns:xlink="http://www.w3.org/1999/xlink" x="0px" y="0px"
	 width="50px" height="50px" viewBox="0 0 50 50" enable-background="new 0 0 50 50" xml:space="preserve">
<g>
	<radialGradient id="SVGID_1_" cx="25" cy="25" r="22.5" gradientUnits="userSpaceOnUse">
		<stop  offset="0.75" style="stop-color:#FAF4F3;stop-opacity:0.0242"/>
		<stop  offset="1" style="stop-color:#9D2236"/>
	</radialGradient>
	<circle fill="url(#SVGID_1_)" cx="25" cy="25" r="22.5"/>
	<circle fill="#9D2236" cx="25" cy="25" r="19.125"/>
</g>
</svg>
